<?xml version="1.0" encoding="UTF-8"?>
<session version="1.0">
<refactoring accessors="true" comment="Delete element from project &apos;GinRummy&apos;&#x0D;&#x0A;- Original project: &apos;GinRummy&apos;&#x0D;&#x0A;- Original element: &apos;com.godden.ginrummy.client.views.GUILayout.java&apos;" description="Delete element" element1="/src&lt;com.godden.ginrummy.client.views{GUILayout.java" elements="1" flags="589830" id="org.eclipse.jdt.ui.delete" resources="0" stamp="1431790806239" subPackages="false" version="1.0"/>
</session>